<?xml version="1.0" encoding="UTF-8"?>
<!DOCTYPE svg PUBLIC "-//W3C//DTD SVG 1.1//EN" "http://www.w3.org/Graphics/SVG/1.1/DTD/svg11.dtd">
<!-- Creator: CorelDRAW X8 -->
<svg xmlns="http://www.w3.org/2000/svg" xml:space="preserve" width="0.277772in" height="0.277772in" version="1.1" style="shape-rendering:geometricPrecision; text-rendering:geometricPrecision; image-rendering:optimizeQuality; fill-rule:evenodd; clip-rule:evenodd"
viewBox="0 0 278 278"
 xmlns:xlink="http://www.w3.org/1999/xlink">
 <defs>
  <style type="text/css">
   <![CDATA[
    .fil0 {fill:#686867}
   ]]>
  </style>
 </defs>
 <g id="Layer_x0020_1">
  <metadata id="CorelCorpID_0Corel-Layer"/>
  <g id="_1569703474400">
   <path class="fil0" d="M37 139c0,21 4,36 14,53 5,10 14,20 22,27 2,2 4,3 7,5 4,4 10,7 15,9 9,5 17,7 28,9 7,1 9,1 16,1l0 -203c-6,0 -17,1 -23,3 -16,4 -32,11 -45,23l-9 9c-1,1 -2,3 -3,4 -6,7 -8,11 -12,19 -5,10 -10,26 -10,41z"/>
   <path class="fil0" d="M176 9l0 38c0,2 0,1 1,1 0,0 2,1 2,1 16,7 30,19 41,33 11,14 16,29 19,46l1 14 -2 18c-3,16 -9,28 -18,41 -1,1 -1,2 -2,3 -5,6 -11,12 -17,17 -5,4 -16,11 -22,13 -1,1 -3,1 -3,3l0 37c0,2 4,0 5,0 2,-1 3,-1 5,-2 4,-1 7,-3 11,-4 5,-3 14,-7 19,-11 20,-13 38,-33 48,-55 7,-16 13,-36 13,-53 0,-3 1,-5 1,-7l-2 -21c-2,-11 -5,-23 -10,-34 -5,-12 -11,-22 -19,-32l-11 -12c-6,-6 -13,-11 -20,-17l-9 -5c-7,-4 -13,-7 -20,-10l-9 -3c-1,0 -2,0 -2,1z"/>
   <path class="fil0" d="M0 135l0 0c0,-15 5,-33 11,-47 1,-2 2,-4 3,-6 8,-16 15,-26 28,-39l6 -6c6,-6 14,-11 22,-15 19,-11 42,-19 65,-19l-135 0 0 132z"/>
  </g>
 </g>
</svg>
